{
  "code": 0,
  "message": "0",
  "ttl": 1,
  "pageinfo": {
    "video": {
      "total": 1000,
      "numResults": 1000,
      "pages": 50
    },
    "bangumi": {
      "total": 0,
      "numResults": 0,
      "pages": 0
    },
    "special": {
      "total": 0,
      "numResults": 0,
      "pages": 0
    },
    "topic": {
      "total": 0,
      "numResults": 0,
      "pages": 0
    },
    "upuser": {
      "total": 0,
      "numResults": 0,
      "pages": 0
    },
    "tv": {
      "total": 0,
      "numResults": 0,
      "pages": 0
    },
    "movie": {
      "total": 0,
      "numResults": 0,
      "pages": 0
    },
    "media_bangumi": {
      "total": 9,
      "numResults": 9,
      "pages": 1
    },
    "media_ft": {
      "total": 98,
      "numResults": 98,
      "pages": 5
    },
    "related_search": {
      "total": 0,
      "numResults": 0,
      "pages": 0
    },
    "user": {
      "total": 0,
      "numResults": 0,
      "pages": 0
    },
    "activity": {
      "total": 0,
      "numResults": 0,
      "pages": 0
    },
    "operation_card": {
      "total": 0,
      "numResults": 0,
      "pages": 0
    },
    "pgc": {
      "total": 0,
      "numResults": 0,
      "pages": 0
    },
    "live": {
      "total": 654,
      "numResults": 654,
      "pages": 33
    },
    "live_all": {
      "total": 654,
      "numResults": 654,
      "pages": 33
    },
    "live_master": {
      "total": 0,
      "numResults": 0,
      "pages": 0
    },
    "live_user": {
      "total": 0,
      "numResults": 0,
      "pages": 0
    },
    "article": {
      "total": 1000,
      "numResults": 1000,
      "pages": 50
    },
    "live_room": {
      "total": 654,
      "numResults": 654,
      "pages": 33
    },
    "bili_user": {
      "total": 1000,
      "numResults": 1000,
      "pages": 50
    },
    "clustering_card": {
      "total": 0,
      "numResults": 0,
      "pages": 0
    }
  },
  "data": {
    "page": 1,
    "pagesize": 20,
    "numResults": 1000,
    "numPages": 50,
    "result": [
      {
        "result_type": "article",
        "data": {
          "category_id": 26,
          "category_name": "数码",
          "comment_url": "",
          "desc": "",
          "id": 21014304,
          "image_urls": [
            "//i1.hdslb.com/bfs/article/e138e2d536aef424cd939c776e06d46d2a17fbfb.png"
          ],
          "is_comment": 0,
          "is_fold": false,
          "is_rk1": false,
          "like": 24,
          "mid": 29184220,
          "pub_time": 1672983906,
          "rank_index": 7,
          "rank_offset": 6,
          "reply": 2,
          "spread_id": 0,
          "sub_type": 0,
          "template_id": 4,
          "title": "在线免费<em class=\"keyword\">看</em>电影的网站哪个好？这两个影视网站绝对是最佳推荐",
          "type": "article",
          "version": "",
          "view": 10167
        }
      },
      {
        "result_type": "bili_user",
        "data": {
          "type": "bili_user",
          "mid": 451320374,
          "uname": "央视网快看",
          "usign": "在这里，看见世界。合作投稿请私信~",
          "fans": 2159677,
          "videos": 10220,
          "upic": "//i1.hdslb.com/bfs/face/127e4c355254788f41ce3dd493f1f2925ebd423d.jpg",
          "face_nft": 0,
          "face_nft_type": 0,
          "verify_info": "",
          "level": 6,
          "gender": 3,
          "is_upuser": 1,
          "is_live": 1,
          "room_id": 22142427,
          "res": [
            {
              "aid": 115410686975318,
              "bvid": "BV1o6WQzJEb7",
              "title": "高市早苗将出任日本第104任首相",
              "pubdate": 1761027453,
              "arcurl": "http://www.bilibili.com/video/av115410686975318",
              "pic": "//i2.hdslb.com/bfs/archive/188384365da6e5a7ba53541f2dc7638b7f88ca79.jpg",
              "play": "17747",
              "dm": 5,
              "coin": 18,
              "fav": 72,
              "desc": "10月21日，在日本众议院首相指名选举第一轮投票中，自民党总裁高市早苗获得237票（众议院共465个议席），超过半数票获胜，将确定出任日本第104任首相。",
              "duration": "0:30",
              "is_pay": 0,
              "is_union_video": 0,
              "is_charge_video": 0,
              "vt": 0,
              "enable_vt": 0,
              "vt_display": ""
            },
            {
              "aid": 115406844992841,
              "bvid": "BV1QkWmzaEmd",
              "title": "时空观察：卢浮宫失窃案暴露哪些问题？",
              "pubdate": 1760968896,
              "arcurl": "http://www.bilibili.com/video/av115406844992841",
              "pic": "//i0.hdslb.com/bfs/archive/0126481bf124f3b889ab1d509d05af5df420b5f6.jpg",
              "play": "4668",
              "dm": 6,
              "coin": 4,
              "fav": 49,
              "desc": "2025年10月20日，央视《东方时空》报道“卢浮宫失窃案”。",
              "duration": "10:51",
              "is_pay": 0,
              "is_union_video": 0,
              "is_charge_video": 0,
              "vt": 0,
              "enable_vt": 0,
              "vt_display": ""
            },
            {
              "aid": 115400536760080,
              "bvid": "BV1DjsNzVEv3",
              "title": "蒙面嫌犯破窗而入，盗走卢浮宫中9件拿破仑时期的珠宝。相关调查正在进行。",
              "pubdate": 1760872596,
              "arcurl": "http://www.bilibili.com/video/av115400536760080",
              "pic": "//i2.hdslb.com/bfs/archive/4b9bb6698eb5aa0142a75ca37e434e4448c5a82b.jpg",
              "play": "37551",
              "dm": 39,
              "coin": 10,
              "fav": 114,
              "desc": "2025年10月19日，央视《共同关注》报道。",
              "duration": "0:28",
              "is_pay": 0,
              "is_union_video": 0,
              "is_charge_video": 0,
              "vt": 0,
              "enable_vt": 0,
              "vt_display": ""
            }
          ],
          "official_verify": {
            "type": 1,
            "desc": "央视网新闻频道官方账号"
          },
          "hit_columns": [],
          "is_senior_member": 0
        }
      },
      {
        "result_type": "media_bangumi",
        "data": {
          "type": "media_bangumi",
          "media_id": 28234651,
          "title": "嗨，顾得白之爱<em class=\"keyword\">最</em>珍贵",
          "org_title": "",
          "media_type": 4,
          "cv": "亚琳\n杨静\n新月\n小K",
          "staff": "总编辑：沈丹冶\n总导演：沈丹怡\n出品人：姚林\n编剧：任重驰、王周愔\n配音导演：亚琳",
          "season_id": 38959,
          "is_avid": false,
          "hit_columns": null,
          "hit_epids": "",
          "season_type": 4,
          "season_type_name": "国创",
          "selection_style": "grid",
          "ep_size": 80,
          "url": "https://www.bilibili.com/bangumi/play/ss38959",
          "button_text": "立即观看",
          "is_follow": 0,
          "is_selection": 1,
          "eps": [
            {
              "id": 418614,
              "cover": "http://i0.hdslb.com/bfs/archive/7d9b631eab86090db1448080df2dd6c25667f32a.png",
              "title": "1",
              "url": "https://www.bilibili.com/bangumi/play/ep418614",
              "release_date": "",
              "badges": null,
              "index_title": "1",
              "long_title": ""
            }
          ],
          "badges": null,
          "cover": "http://i0.hdslb.com/bfs/bangumi/image/6b3d6a9b53652a28c9f0a0463103ae59cccd6174.png",
          "areas": "中国大陆",
          "styles": "",
          "goto_url": "https://www.bilibili.com/bangumi/play/ss38959",
          "desc": "新学期，顾得白走进幼儿园，和同学们分享暑假趣事。聊天过程中，他了解到随便打断别人说话是不礼貌的行为。幼儿园的生活总会有小摩擦，顾得白和好朋友球球闹矛盾了，在妈妈的开导下，顾得白懂得了友谊可贵的道理。一...",
          "pubtime": 1546272000,
          "media_mode": 2,
          "fix_pubtime_str": "",
          "media_score": {
            "score": 0,
            "user_count": 0
          },
          "display_info": null,
          "pgc_season_id": 38959,
          "corner": 2,
          "index_show": "全80话"
      }
      },
      {
        "result_type": "media_ft",
        "data": {
          "type": "media_ft",
          "media_id": 22663696,
          "title": "地平线：宇宙中的怪异天气",
          "org_title": "Horizon: The Weirdest Weather In The Universe",
          "media_type": 3,
          "cv": "",
          "staff": "BBC Worldwide Limited",
          "season_id": 26798,
          "is_avid": false,
          "hit_columns": null,
          "hit_epids": "",
          "season_type": 3,
          "season_type_name": "纪录片",
          "selection_style": "grid",
          "ep_size": 0,
          "url": "https://www.bilibili.com/bangumi/play/ep265146",
          "button_text": "立即观看",
          "is_follow": 0,
          "is_selection": 0,
          "eps": null,
          "badges": [
            {
              "text": "大会员",
              "text_color": "#FFFFFF",
              "text_color_night": "#E5E5E5",
              "bg_color": "#FB7299",
              "bg_color_night": "#D44E7D",
              "border_color": "#FB7299",
              "border_color_night": "#D44E7D",
              "bg_style": 1
            }
          ],
          "cover": "http://i0.hdslb.com/bfs/bangumi/285aded5faa04401b8c3135496b84e76d6cb75ca.jpg",
          "areas": "英国",
          "styles": "宇宙/自然/科技",
          "goto_url": "https://www.bilibili.com/bangumi/play/ep265146",
          "desc": "从保龄球大小的冰雹到扭曲的龙卷风，地球上的天气可以说是无奇不有，但即使是我们见过的最极端的天气也无法和太阳系其他行星或宇宙中数百万光年以外的行星上的天气相比。通过参观先进的实验室和使用神奇的CGI图像...",
          "pubtime": 1451577600,
          "media_mode": 1,
          "fix_pubtime_str": "",
          "media_score": {
            "score": 0,
            "user_count": 0
          },
          "display_info": [
            {
              "text": "大会员",
              "text_color": "#FFFFFF",
              "text_color_night": "#E5E5E5",
              "bg_color": "#FB7299",
              "bg_color_night": "#D44E7D",
              "border_color": "#FB7299",
              "border_color_night": "#D44E7D",
              "bg_style": 1
            }
          ],
          "pgc_season_id": 26798,
          "corner": 13,
          "index_show": ""
        }
      },
      {
        "result_type": "live_room",
        "data": {
          "area": 3,
          "attentions": 240820,
          "cate_name": "守望先锋",
          "cover": "//i0.hdslb.com/bfs/live-key-frame/keyframe1012190100002128102089i7ja.jpg",
          "hit_columns": [
            "title"
          ],
          "id": 21281020,
          "inline_title_style": 0,
          "is_fold": false,
          "is_live_room_inline": 0,
          "is_rk1": false,
          "live_status": 1,
          "live_time": "2025-10-12 15:32:24",
          "online": 15658,
          "pic": "//i0.hdslb.com/bfs/live-key-frame/keyframe1012190100002128102089i7ja.jpg",
          "rank_index": 1,
          "rank_offset": 0,
          "roomid": 21281020,
          "short_id": 0,
          "spread_id": 0,
          "style": 1,
          "tags": "守望先锋,美少女,解说,小姐姐",
          "title": "先<em class=\"keyword\">看</em>韩再<em class=\"keyword\">看</em>中",
          "type": "live_room",
          "uface": "//i1.hdslb.com/bfs/face/48a292a34f391b935bd76c69761e17ed9d019d68.jpg",
          "uid": 1779128,
          "uname": "小霜请你吃颗糖",
          "user_cover": "//i0.hdslb.com/bfs/live/new_room_cover/5411343a34b96b91f57aa4d2561301269aa94fa7.jpg"
        }
      },
      {
        "result_type": "live_user",
        "data": {
          "area": 6,
          "area_v2_id": 715,
          "attentions": 2163958,
          "cate_name": "时政",
          "hit_columns": [
            "uname"
          ],
          "id": 22142427,
          "is_live": true,
          "live_status": 1,
          "live_time": "2025-09-30 10:34:13",
          "rank_index": 1,
          "rank_offset": 0,
          "roomid": 22142427,
          "tags": "",
          "type": "live_user",
          "uface": "//i1.hdslb.com/bfs/face/127e4c355254788f41ce3dd493f1f2925ebd423d.jpg",
          "uid": 451320374,
          "uname": "央视网快<em class=\"keyword\">看</em>"
        }
      },
      {
        "result_type": "video",
                "data": {
          "type": "video",
          "id": 114179860077362,
          "author": "阿周说事",
          "mid": 215998368,
          "typeid": "95", 
          "typename": "数码",
          "arcurl": "http://www.bilibili.com/video/av114179860077362",
          "aid": 114179860077362,
          "bvid": "BV1LoXgYFEQu",
          "title": "<em class=\"keyword\">ZUI</em>系统刷成类原生安卓教程",
          "description": "原帖链接https://xdaforums.com/t/tb-q706f-pad-pro-12-6-bypass-lenovos-region-lock-row-zui-easy.4487871/\nHXD的提取码6je7，链接https://www.lanzouj.com/b389297\n系统包下载链接https://mirrors-obs-1.lolinet.com/firmware/lenowow/2021/Tab_P12_Pro/TB-Q706F/\n9008线刷工具https://www.yhcre",
          "pic": "//i1.hdslb.com/bfs/archive/42cb9a7dad4e8655b6f69283a0edf2633e740c26.jpg",
          "play": 6545,
          "video_review": 0,
          "favorites": 189,
          "tag": "ZUI,GOOGLE,刷机,安卓系统,区域限制,类原生,必剪创作,QFIL,P12 PRO,小新pad pro12.6",
          "review": 28,
          "pubdate": 1742256000,
          "senddate": 1742256021,
          "duration": "6:16",
          "badgepay": false,
          "hit_columns": [
            "title",
            "tag"
          ],
          "view_type": "",
          "is_pay": 0,
          "is_union_video": 0,
          "rec_tags": null,
          "new_rec_tags": [],
          "like": 120,
          "upic": "https://i0.hdslb.com/bfs/face/55424210b215ee87c5e561f6c870533cb80e71fe.jpg",
          "corner": "",
          "cover": "",
          "desc": "",
          "url": "",
          "rec_reason": "",
          "danmaku": 0,
          "biz_data": null,
          "is_charge_video": 0,
          "vt": 0,
          "enable_vt": 0,
          "vt_display": "",
          "subtitle": "",
          "episode_count_text": "",
          "release_status": 0,
          "is_intervene": 0,
          "area": 0,
          "style": 0,
          "cate_name": "",
          "is_live_room_inline": 0,
          "live_status": 0,
          "live_time": "",
          "online": 0,
          "rank_index": 1,
          "rank_offset": 1,
          "roomid": 0,
          "short_id": 0,
          "spread_id": 0,
          "tags": "",
          "uface": "",
          "uid": 0,
          "uname": "",
          "user_cover": "",
          "parent_area_id": 0,
          "parent_area_name": "",
          "watched_show": null
        }
      }
    ]
  }
}